{
 "based_on": "",
 "chart_name": "Bank Transaction Expenses by Category",
 "chart_type": "Report",
 "creation": "2022-03-25 23:12:52.966276",
 "docstatus": 0,
 "doctype": "Dashboard Chart",
 "dynamic_filters_json": "[]",
 "filters_json": "{\"company\":\"DOKOS\",\"period\":\"this year\",\"transaction_type\":\"debit\"}",
 "group_by_type": "Count",
 "idx": 0,
 "is_public": 1,
 "is_standard": 1,
 "modified": "2022-03-25 23:25:52.588587",
 "modified_by": "Administrator",
 "module": "Accounts",
 "name": "Bank Transaction Expenses by Category",
 "number_of_groups": 0,
 "owner": "Administrator",
 "report_name": "Bank Transaction Categories",
 "time_interval": "Yearly",
 "timeseries": 0,
 "timespan": "Last Year",
 "type": "Pie",
 "use_report_chart": 1,
 "value_based_on": "",
 "x_field": "",
 "y_axis": []
}
