{
 "allow_roles": [
  {
   "role": "Sales Master Manager"
  },
  {
   "role": "Sales Manager"
  },
  {
   "role": "Sales User"
  }
 ],
 "creation": "2020-05-09 23:42:50.901548",
 "docstatus": 0,
 "doctype": "Module Onboarding",
 "documentation_url": "https://doc.dokos.io",
 "idx": 0,
 "is_complete": 0,
 "modified": "2022-01-29 20:14:29.502145",
 "modified_by": "Administrator",
 "module": "CRM",
 "name": "CRM",
 "owner": "Administrator",
 "steps": [
  {
   "step": "Introduction to CRM"
  },
  {
   "step": "Create Lead"
  },
  {
   "step": "Create Opportunity"
  },
  {
   "step": "Create and Send Quotation"
},
{
 "step": "CRM Settings"
  }
 ],
 "subtitle": "Lead, Opportunity, Customer and more.",
 "success_message": "The CRM Module is set up!",
 "title": "Let's set up your CRM.",
 "user_can_dismiss": 1
}
