{
 "actions": [],
 "autoname": "MAT-UOM-CNV-.#####",
 "creation": "2018-04-30 17:37:02.347217",
 "doctype": "DocType",
 "editable_grid": 1,
 "engine": "InnoDB",
 "field_order": [
  "category",
  "section_break_2",
  "from_uom",
  "to_uom",
  "value"
 ],
 "fields": [
  {
   "fieldname": "category",
   "fieldtype": "Link",
   "in_list_view": 1,
   "in_standard_filter": 1,
   "label": "Category",
   "options": "UOM Category",
   "reqd": 1
  },
  {
   "fieldname": "section_break_2",
   "fieldtype": "Section Break"
  },
  {
   "fieldname": "from_uom",
   "fieldtype": "Link",
   "in_list_view": 1,
   "in_standard_filter": 1,
   "label": "From",
   "options": "UOM",
   "reqd": 1
  },
  {
   "fieldname": "to_uom",
   "fieldtype": "Link",
   "in_list_view": 1,
   "in_standard_filter": 1,
   "label": "To",
   "options": "UOM",
   "reqd": 1
  },
  {
   "fieldname": "value",
   "fieldtype": "Float",
   "in_list_view": 1,
   "label": "Value",
   "precision": "9",
   "reqd": 1
  }
 ],
 "links": [],
 "modified": "2022-08-03 15:51:00.678429",
 "modified_by": "Administrator",
 "module": "Setup",
 "name": "UOM Conversion Factor",
 "owner": "Administrator",
 "permissions": [
  {
   "create": 1,
   "delete": 1,
   "email": 1,
   "export": 1,
   "print": 1,
   "read": 1,
   "report": 1,
   "role": "System Manager",
   "share": 1,
   "write": 1
  }
 ],
 "quick_entry": 1,
 "sort_field": "modified",
 "sort_order": "DESC",
 "states": [],
 "track_changes": 1
}